{"uid":"5ba93ed9dec4e2a3","name":"E2E_TC001: Search external customers","fullName":"Customer search.E2E_TC001: Search external customers","historyId":"868c2af7e7da201d3b987d118858e97","time":{"start":1660969019047,"stop":1660969030625,"duration":11578},"description":"","descriptionHtml":"","status":"passed","flaky":false,"newFailed":false,"newBroken":false,"newPassed":false,"retriesCount":0,"retriesStatusChange":false,"beforeStages":[],"testStage":{"status":"passed","steps":[{"name":"Given Get list of users from reqres.in","time":{"start":1660969019049,"stop":1660969019404,"duration":355},"status":"passed","steps":[{"name":"Getting the payload data for endpoint: users","time":{"start":1660969019053,"stop":1660969019053,"duration":0},"status":"passed","steps":[],"attachments":[],"parameters":[],"stepsCount":0,"attachmentsCount":0,"shouldDisplayMessage":false,"hasContent":false},{"name":"Making a GET to /api/users","time":{"start":1660969019054,"stop":1660969019054,"duration":0},"status":"passed","steps":[],"attachments":[],"parameters":[],"stepsCount":0,"attachmentsCount":0,"shouldDisplayMessage":false,"hasContent":false},{"name":"API response received, data: {\"page\":1,\"per_page\":6,\"total\":12,\"total_pages\":2,\"data\":[{\"id\":1,\"email\":\"george.bluth@reqres.in\",\"first_name\":\"George\",\"last_name\":\"Bluth\",\"avatar\":\"https://reqres.in/img/faces/1-image.jpg\"},{\"id\":2,\"email\":\"janet.weaver@reqres.in\",\"first_name\":\"Janet\",\"last_name\":\"Weaver\",\"avatar\":\"https://reqres.in/img/faces/2-image.jpg\"},{\"id\":3,\"email\":\"emma.wong@reqres.in\",\"first_name\":\"Emma\",\"last_name\":\"Wong\",\"avatar\":\"https://reqres.in/img/faces/3-image.jpg\"},{\"id\":4,\"email\":\"eve.holt@reqres.in\",\"first_name\":\"Eve\",\"last_name\":\"Holt\",\"avatar\":\"https://reqres.in/img/faces/4-image.jpg\"},{\"id\":5,\"email\":\"charles.morris@reqres.in\",\"first_name\":\"Charles\",\"last_name\":\"Morris\",\"avatar\":\"https://reqres.in/img/faces/5-image.jpg\"},{\"id\":6,\"email\":\"tracey.ramos@reqres.in\",\"first_name\":\"Tracey\",\"last_name\":\"Ramos\",\"avatar\":\"https://reqres.in/img/faces/6-image.jpg\"}],\"support\":{\"url\":\"https://reqres.in/#support-heading\",\"text\":\"To keep ReqRes free, contributions towards server costs are appreciated!\"}}","time":{"start":1660969019402,"stop":1660969019402,"duration":0},"status":"passed","steps":[],"attachments":[],"parameters":[],"stepsCount":0,"attachmentsCount":0,"shouldDisplayMessage":false,"hasContent":false},{"name":"API response from /api/users stored in json file","time":{"start":1660969019403,"stop":1660969019403,"duration":0},"status":"passed","steps":[],"attachments":[],"parameters":[],"stepsCount":0,"attachmentsCount":0,"shouldDisplayMessage":false,"hasContent":false}],"attachments":[],"parameters":[],"stepsCount":4,"attachmentsCount":0,"shouldDisplayMessage":false,"hasContent":true},{"name":"When An as Admin user login to nopcommerce site","time":{"start":1660969019404,"stop":1660969022164,"duration":2760},"status":"passed","steps":[{"name":"Login to nopcommerce demo site...","time":{"start":1660969019406,"stop":1660969019406,"duration":0},"status":"passed","steps":[],"attachments":[],"parameters":[],"stepsCount":0,"attachmentsCount":0,"shouldDisplayMessage":false,"hasContent":false},{"name":"Login to :https://admin-demo.nopcommerce.com with admin@yourstore.com","time":{"start":1660969019407,"stop":1660969019407,"duration":0},"status":"passed","steps":[],"attachments":[],"parameters":[],"stepsCount":0,"attachmentsCount":0,"shouldDisplayMessage":false,"hasContent":false},{"name":"Login to :https://admin-demo.nopcommerce.com with admin@yourstore.com is successful","time":{"start":1660969022163,"stop":1660969022163,"duration":0},"status":"passed","steps":[],"attachments":[],"parameters":[],"stepsCount":0,"attachmentsCount":0,"shouldDisplayMessage":false,"hasContent":false}],"attachments":[],"parameters":[],"stepsCount":3,"attachmentsCount":0,"shouldDisplayMessage":false,"hasContent":true},{"name":"Then Verify if all users exist in customers list","time":{"start":1660969022164,"stop":1660969030624,"duration":8460},"status":"passed","steps":[{"name":"Navigated to customer list screen...","time":{"start":1660969023484,"stop":1660969023484,"duration":0},"status":"passed","steps":[],"attachments":[],"parameters":[],"stepsCount":0,"attachmentsCount":0,"shouldDisplayMessage":false,"hasContent":false},{"name":"Searching user: George Bluth","time":{"start":1660969023485,"stop":1660969023485,"duration":0},"status":"passed","steps":[],"attachments":[],"parameters":[],"stepsCount":0,"attachmentsCount":0,"shouldDisplayMessage":false,"hasContent":false},{"name":"Searching user: Janet Weaver","time":{"start":1660969024790,"stop":1660969024790,"duration":0},"status":"passed","steps":[],"attachments":[],"parameters":[],"stepsCount":0,"attachmentsCount":0,"shouldDisplayMessage":false,"hasContent":false},{"name":"Searching user: Emma Wong","time":{"start":1660969025956,"stop":1660969025956,"duration":0},"status":"passed","steps":[],"attachments":[],"parameters":[],"stepsCount":0,"attachmentsCount":0,"shouldDisplayMessage":false,"hasContent":false},{"name":"Searching user: Eve Holt","time":{"start":1660969027119,"stop":1660969027119,"duration":0},"status":"passed","steps":[],"attachments":[],"parameters":[],"stepsCount":0,"attachmentsCount":0,"shouldDisplayMessage":false,"hasContent":false},{"name":"Searching user: Charles Morris","time":{"start":1660969028283,"stop":1660969028283,"duration":0},"status":"passed","steps":[],"attachments":[],"parameters":[],"stepsCount":0,"attachmentsCount":0,"shouldDisplayMessage":false,"hasContent":false},{"name":"Searching user: Tracey Ramos","time":{"start":1660969029460,"stop":1660969029460,"duration":0},"status":"passed","steps":[],"attachments":[],"parameters":[],"stepsCount":0,"attachmentsCount":0,"shouldDisplayMessage":false,"hasContent":false}],"attachments":[],"parameters":[],"stepsCount":7,"attachmentsCount":0,"shouldDisplayMessage":false,"hasContent":true}],"attachments":[],"parameters":[],"stepsCount":17,"attachmentsCount":0,"shouldDisplayMessage":false,"hasContent":true},"afterStages":[],"labels":[{"name":"framework","value":"wdio"},{"name":"language","value":"javascript"},{"name":"thread","value":"0-0"},{"name":"suite","value":"Customer search"},{"name":"testClass","value":"Customer search"},{"name":"testMethod","value":"E2E_TC001: Search external customers"},{"name":"package","value":"Customer search"},{"name":"resultFormat","value":"allure1"}],"parameters":[{"name":"browser","value":"chrome-104.0.5112.79"}],"links":[],"hidden":false,"retry":false,"extra":{"severity":"normal","retries":[],"categories":[],"history":{"statistic":{"failed":0,"broken":1,"skipped":0,"passed":5,"unknown":0,"total":6},"items":[{"uid":"1c174ba4793b09e0","reportUrl":"https://copeautomation.github.io/wdio-cucumber-e2e-test/28//#testresult/1c174ba4793b09e0","status":"passed","time":{"start":1660968417019,"stop":1660968427931,"duration":10912}},{"uid":"ab515b8eeacdb46f","reportUrl":"https://copeautomation.github.io/wdio-cucumber-e2e-test/27//#testresult/ab515b8eeacdb46f","status":"passed","time":{"start":1660909397855,"stop":1660909409732,"duration":11877}},{"uid":"fec1fa57824a583d","reportUrl":"https://copeautomation.github.io/wdio-cucumber-e2e-test/26//#testresult/fec1fa57824a583d","status":"broken","statusDetails":"Step \"Ann as Admin user login to nopcommerce site\" is not defined. You can ignore this error by setting cucumberOpts.ignoreUndefinedDefinitions as true.","time":{"start":1660908990680,"stop":1660908990840,"duration":160}},{"uid":"b3b32b3b498cbb68","reportUrl":"https://copeautomation.github.io/wdio-cucumber-e2e-test/25//#testresult/b3b32b3b498cbb68","status":"passed","time":{"start":1660908727608,"stop":1660908739377,"duration":11769}},{"uid":"7fa67fb44fb22f81","reportUrl":"https://copeautomation.github.io/wdio-cucumber-e2e-test/24//#testresult/7fa67fb44fb22f81","status":"passed","time":{"start":1660908052637,"stop":1660908064248,"duration":11611}}]},"tags":[]},"source":"5ba93ed9dec4e2a3.json","parameterValues":["chrome-104.0.5112.79"]}