{"uid":"fec1fa57824a583d","name":"E2E_TC001: Search external customers","fullName":"Customer search.E2E_TC001: Search external customers","historyId":"868c2af7e7da201d3b987d118858e97","time":{"start":1660908990680,"stop":1660908990840,"duration":160},"description":"","descriptionHtml":"","status":"broken","statusMessage":"Step \"Ann as Admin user login to nopcommerce site\" is not defined. You can ignore this error by setting cucumberOpts.ignoreUndefinedDefinitions as true.","statusTrace":"Step \"Ann as Admin user login to nopcommerce site\" is not defined. You can ignore this error by setting cucumberOpts.ignoreUndefinedDefinitions as true.\n                \tat Feature(/home/runner/work/wdio-cucumber-e2e-test/wdio-cucumber-e2e-test/test/features/commerce/E2ETest.feature):1:1\n                \tat Scenario(<TestID>: Search external customers):4:5\n                \tat Step(Ann as Admin user login to nopcommerce site):6:9\n                ","flaky":false,"newFailed":false,"newBroken":true,"newPassed":false,"retriesCount":0,"retriesStatusChange":false,"beforeStages":[],"testStage":{"status":"broken","statusMessage":"Step \"Ann as Admin user login to nopcommerce site\" is not defined. You can ignore this error by setting cucumberOpts.ignoreUndefinedDefinitions as true.","statusTrace":"Step \"Ann as Admin user login to nopcommerce site\" is not defined. You can ignore this error by setting cucumberOpts.ignoreUndefinedDefinitions as true.\n                \tat Feature(/home/runner/work/wdio-cucumber-e2e-test/wdio-cucumber-e2e-test/test/features/commerce/E2ETest.feature):1:1\n                \tat Scenario(<TestID>: Search external customers):4:5\n                \tat Step(Ann as Admin user login to nopcommerce site):6:9\n                ","steps":[{"name":"Given Get list of users from reqres.in","time":{"start":1660908990682,"stop":1660908990839,"duration":157},"status":"passed","steps":[{"name":"Getting the payload data for endpoint: users","time":{"start":1660908990695,"stop":1660908990696,"duration":1},"status":"passed","steps":[],"attachments":[],"parameters":[],"stepsCount":0,"attachmentsCount":0,"shouldDisplayMessage":false,"hasContent":false},{"name":"Making a GET to /api/users","time":{"start":1660908990699,"stop":1660908990699,"duration":0},"status":"passed","steps":[],"attachments":[],"parameters":[],"stepsCount":0,"attachmentsCount":0,"shouldDisplayMessage":false,"hasContent":false},{"name":"API response received, data: {\"page\":1,\"per_page\":6,\"total\":12,\"total_pages\":2,\"data\":[{\"id\":1,\"email\":\"george.bluth@reqres.in\",\"first_name\":\"George\",\"last_name\":\"Bluth\",\"avatar\":\"https://reqres.in/img/faces/1-image.jpg\"},{\"id\":2,\"email\":\"janet.weaver@reqres.in\",\"first_name\":\"Janet\",\"last_name\":\"Weaver\",\"avatar\":\"https://reqres.in/img/faces/2-image.jpg\"},{\"id\":3,\"email\":\"emma.wong@reqres.in\",\"first_name\":\"Emma\",\"last_name\":\"Wong\",\"avatar\":\"https://reqres.in/img/faces/3-image.jpg\"},{\"id\":4,\"email\":\"eve.holt@reqres.in\",\"first_name\":\"Eve\",\"last_name\":\"Holt\",\"avatar\":\"https://reqres.in/img/faces/4-image.jpg\"},{\"id\":5,\"email\":\"charles.morris@reqres.in\",\"first_name\":\"Charles\",\"last_name\":\"Morris\",\"avatar\":\"https://reqres.in/img/faces/5-image.jpg\"},{\"id\":6,\"email\":\"tracey.ramos@reqres.in\",\"first_name\":\"Tracey\",\"last_name\":\"Ramos\",\"avatar\":\"https://reqres.in/img/faces/6-image.jpg\"}],\"support\":{\"url\":\"https://reqres.in/#support-heading\",\"text\":\"To keep ReqRes free, contributions towards server costs are appreciated!\"}}","time":{"start":1660908990837,"stop":1660908990837,"duration":0},"status":"passed","steps":[],"attachments":[],"parameters":[],"stepsCount":0,"attachmentsCount":0,"shouldDisplayMessage":false,"hasContent":false},{"name":"API response from /api/users stored in json file","time":{"start":1660908990838,"stop":1660908990838,"duration":0},"status":"passed","steps":[],"attachments":[],"parameters":[],"stepsCount":0,"attachmentsCount":0,"shouldDisplayMessage":false,"hasContent":false}],"attachments":[],"parameters":[],"stepsCount":4,"attachmentsCount":0,"shouldDisplayMessage":false,"hasContent":true},{"name":"When Ann as Admin user login to nopcommerce site","time":{"start":1660908990839,"stop":1660908990840,"duration":1},"status":"broken","statusMessage":"Step \"Ann as Admin user login to nopcommerce site\" is not defined. You can ignore this error by setting cucumberOpts.ignoreUndefinedDefinitions as true.\n                \tat Feature(/home/runner/work/wdio-cucumber-e2e-test/wdio-cucumber-e2e-test/test/features/commerce/E2ETest.feature):1:1\n                \tat Scenario(<TestID>: Search external customers):4:5\n                \tat Step(Ann as Admin user login to nopcommerce site):6:9\n                ","steps":[],"attachments":[],"parameters":[],"stepsCount":0,"attachmentsCount":0,"shouldDisplayMessage":true,"hasContent":true}],"attachments":[],"parameters":[],"stepsCount":6,"attachmentsCount":0,"shouldDisplayMessage":true,"hasContent":true},"afterStages":[],"labels":[{"name":"framework","value":"wdio"},{"name":"language","value":"javascript"},{"name":"thread","value":"0-0"},{"name":"suite","value":"Customer search"},{"name":"testClass","value":"Customer search"},{"name":"testMethod","value":"E2E_TC001: Search external customers"},{"name":"package","value":"Customer search"},{"name":"resultFormat","value":"allure1"}],"parameters":[{"name":"browser","value":"chrome-104.0.5112.79"}],"links":[],"hidden":false,"retry":false,"extra":{"severity":"normal","retries":[],"categories":[{"name":"Test defects","matchedStatuses":[],"flaky":false}],"history":{"statistic":{"failed":0,"broken":1,"skipped":0,"passed":2,"unknown":0,"total":3},"items":[{"uid":"b3b32b3b498cbb68","reportUrl":"https://copeautomation.github.io/wdio-cucumber-e2e-test/25//#testresult/b3b32b3b498cbb68","status":"passed","time":{"start":1660908727608,"stop":1660908739377,"duration":11769}},{"uid":"7fa67fb44fb22f81","reportUrl":"https://copeautomation.github.io/wdio-cucumber-e2e-test/24//#testresult/7fa67fb44fb22f81","status":"passed","time":{"start":1660908052637,"stop":1660908064248,"duration":11611}}]},"tags":[]},"source":"fec1fa57824a583d.json","parameterValues":["chrome-104.0.5112.79"]}